1	1	8x8	8	8	Button	1	Button	-1	Button	-1	Button	-1	Block	-1	Block	-1	Block	-1	Block	-1	Button	1	Button	2	Button	-1	Button	-1	Button	-1	Button	-1	Block	-1	Block	-1	Button	-1	Button	-1	Button	-1	Button	-1	Button	2	Button	-1	Button	-1	Button	-1	Button	1	Button	-1	Button	-1	Button	-1	Button	2	Button	-1	Button	-1	Button	3	Button	1	Button	-1	Button	3	Button	-1	Button	-1	Button	-1	Button	-1	Button	-1	Button	-1	Button	3	Button	-1	Button	-1	Button	2	Button	-1	Button	-1	Button	-1	Block	-1	Block	-1	Button	-1	Button	-1	Button	-1	Button	-1	Button	-1	Button	-1	Block	-1	Block	-1	Block	-1	Block	-1	Button	-1	Button	1	Button	-1	Button	-1
2	1	8x8	8	8	Block	-1	Block	-1	Block	-1	Block	-1	Button	-1	Button	1	Button	-1	Button	-1	Block	-1	Block	-1	Button	1	Button	-1	Button	-1	Button	3	Button	-1	Button	-1	Block	-1	Button	-1	Button	-1	Button	2	Button	-1	Button	-1	Button	-1	Button	-1	Block	-1	Button	-1	Button	-1	Button	-1	Button	1	Button	-1	Button	-1	Button	3	Button	-1	Button	-1	Button	-1	Button	2	Button	-1	Button	1	Button	3	Block	-1	Button	-1	Button	-1	Button	-1	Button	-1	Button	-1	Button	-1	Button	-1	Block	-1	Button	2	Button	-1	Button	-1	Button	-1	Button	3	Button	-1	Block	-1	Block	-1	Button	-1	Button	-1	Button	-1	Button	3	Block	-1	Block	-1	Block	-1	Block	-1
3	1	8x8	8	8	Button	1	Button	-1	Button	-1	Button	-1	Button	-1	Block	-1	Block	-1	Block	-1	Button	-1	Button	-1	Button	-1	Button	-1	Button	2	Block	-1	Block	-1	Block	-1	Button	-1	Button	-1	Button	3	Button	-1	Button	-1	Button	-1	Block	-1	Block	-1	Button	-1	Button	-1	Button	-1	Button	-1	Button	2	Button	-1	Button	1	Button	-1	Button	-1	Button	-1	Button	2	Button	-1	Button	2	Button	-1	Button	1	Button	-1	Block	-1	Block	-1	Button	1	Button	-1	Button	-1	Button	-1	Button	3	Button	3	Block	-1	Block	-1	Block	-1	Button	-1	Button	-1	Button	-1	Button	1	Button	-1	Block	-1	Block	-1	Block	-1	Button	-1	Button	-1	Button	-1	Button	1	Button	-1
4	1	8x8	8	8	Block	-1	Block	-1	Block	-1	Button	4	Button	-1	Button	3	Button	-1	Button	-1	Block	-1	Block	-1	Button	-1	Button	-1	Button	-1	Button	-1	Button	-1	Button	4	Button	-1	Button	-1	Button	2	Button	-1	Button	1	Button	4	Button	-1	Button	-1	Button	-1	Button	-1	Button	2	Button	1	Button	-1	Button	-1	Button	-1	Button	-1	Button	-1	Button	-1	Button	-1	Button	-1	Button	3	Button	2	Button	-1	Button	-1	Button	-1	Button	1	Button	2	Button	3	Button	-1	Button	-1	Button	-1	Button	-1	Button	1	Button	-1	Button	-1	Button	-1	Button	-1	Button	-1	Block	-1	Block	-1	Button	-1	Button	-1	Button	1	Button	-1	Button	-1	Block	-1	Block	-1	Block	-1
5	1	8x8	8	8	Block	-1	Block	-1	Button	3	Button	-1	Button	-1	Button	-1	Button	-1	Button	1	Block	-1	Block	-1	Button	4	Button	-1	Button	1	Button	2	Button	-1	Button	-1	Block	-1	Button	-1	Button	4	Button	-1	Button	1	Button	-1	Button	-1	Button	-1	Button	3	Button	2	Button	2	Button	-1	Button	2	Button	2	Button	-1	Button	-1	Button	-1	Button	3	Button	4	Button	-1	Button	-1	Button	-1	Button	-1	Button	-1	Button	-1	Button	-1	Button	4	Button	-1	Button	-1	Button	-1	Button	-1	Block	-1	Button	-1	Button	-1	Button	-1	Button	3	Button	-1	Button	4	Block	-1	Block	-1	Button	-1	Button	-1	Button	-1	Button	-1	Button	3	Button	-1	Block	-1	Block	-1
6	1	8x8	8	8	Block	-1	Block	-1	Block	-1	Block	-1	Button	1	Button	-1	Button	-1	Button	-1	Block	-1	Button	-1	Button	4	Button	-1	Button	1	Button	-1	Button	-1	Button	-1	Button	-1	Button	-1	Button	-1	Button	-1	Button	-1	Button	4	Button	-1	Button	-1	Button	4	Button	-1	Button	-1	Button	-1	Button	1	Button	-1	Button	-1	Button	-1	Button	3	Button	-1	Button	-1	Button	-1	Button	1	Button	-1	Button	-1	Button	-1	Button	-1	Button	2	Button	-1	Button	2	Button	2	Button	-1	Button	-1	Button	3	Button	1	Button	-1	Button	3	Button	-1	Button	-1	Button	4	Button	-1	Block	-1	Button	2	Button	-1	Button	-1	Button	-1	Block	-1	Block	-1	Block	-1	Block	-1
7	1	8x8	8	8	Block	-1	Block	-1	Block	-1	Button	-1	Button	1	Button	-1	Button	-1	Button	5	Block	-1	Button	-1	Button	2	Button	-1	Button	-1	Button	-1	Button	-1	Button	-1	Block	-1	Button	-1	Button	1	Button	5	Button	5	Button	-1	Button	-1	Button	-1	Button	-1	Button	-1	Button	-1	Button	3	Button	4	Button	1	Button	-1	Button	-1	Button	-1	Button	-1	Button	-1	Button	3	Button	4	Button	-1	Button	-1	Button	-1	Button	4	Button	3	Button	2	Button	-1	Button	-1	Button	-1	Button	-1	Block	-1	Button	-1	Button	-1	Button	2	Button	3	Button	4	Button	-1	Button	-1	Block	-1	Button	-1	Button	-1	Button	-1	Button	3	Button	-1	Block	-1	Block	-1	Block	-1
8	1	8x8	8	8	Button	-1	Button	-1	Button	-1	Button	-1	Button	-1	Button	2	Button	-1	Block	-1	Button	-1	Button	2	Button	1	Button	2	Button	-1	Button	4	Button	-1	Block	-1	Button	-1	Button	-1	Button	2	Button	3	Button	2	Button	-1	Button	-1	Block	-1	Block	-1	Button	-1	Button	-1	Button	4	Button	3	Button	-1	Button	1	Block	-1	Block	-1	Button	-1	Button	4	Button	-1	Button	2	Button	-1	Button	1	Block	-1	Block	-1	Button	-1	Button	-1	Button	-1	Button	5	Button	-1	Button	3	Button	4	Block	-1	Button	5	Button	-1	Button	2	Button	-1	Button	5	Button	1	Button	-1	Block	-1	Button	-1	Button	-1	Button	-1	Button	-1	Button	3	Button	1	Button	-1
9	1	8x8	8	8	Button	1	Button	-1	Button	-1	Button	-1	Button	-1	Button	5	Block	-1	Block	-1	Button	-1	Button	-1	Button	-1	Button	-1	Button	-1	Button	1	Block	-1	Block	-1	Button	-1	Button	-1	Button	-1	Button	3	Button	1	Button	4	Button	-1	Block	-1	Button	3	Button	-1	Button	-1	Button	-1	Button	4	Button	2	Button	-1	Button	-1	Button	4	Button	-1	Button	1	Button	3	Button	5	Button	-1	Button	2	Button	2	Block	-1	Button	1	Button	-1	Button	2	Button	2	Button	-1	Button	2	Button	-1	Block	-1	Block	-1	Button	-1	Button	-1	Button	-1	Button	-1	Button	5	Button	-1	Block	-1	Block	-1	Button	-1	Button	2	Button	-1	Button	-1	Button	-1	Button	-1
10	1	8x8	8	8	Button	-1	Button	-1	Button	-1	Button	3	Button	-1	Block	-1	Block	-1	Block	-1	Button	-1	Button	-1	Button	-1	Button	2	Button	3	Button	3	Button	-1	Block	-1	Button	-1	Button	-1	Button	-1	Button	5	Button	4	Button	2	Button	2	Block	-1	Button	5	Button	2	Button	1	Button	4	Button	5	Button	-1	Button	3	Button	-1	Button	-1	Button	-1	Button	-1	Button	-1	Button	-1	Button	2	Button	-1	Button	-1	Block	-1	Button	-1	Button	-1	Button	-1	Button	1	Button	-1	Button	-1	Button	2	Block	-1	Button	1	Button	-1	Button	-1	Button	-1	Button	1	Button	-1	Button	-1	Block	-1	Block	-1	Block	-1	Button	-1	Button	-1	Button	4	Button	-1	Button	-1
11	1	8x8	8	8	Button	-1	Button	1	Button	-1	Button	-1	Button	-1	Button	-1	Button	-1	Button	-1	Button	-1	Button	-1	Button	1	Button	1	Button	4	Button	-1	Button	-1	Button	-1	Button	-1	Button	-1	Button	5	Button	-1	Button	5	Button	-1	Button	-1	Button	-1	Button	-1	Button	-1	Button	1	Button	5	Button	1	Button	3	Button	-1	Button	-1	Button	3	Button	-1	Button	-1	Button	-1	Button	-1	Button	-1	Button	4	Button	-1	Button	-1	Button	-1	Button	-1	Button	3	Button	2	Button	1	Button	4	Button	-1	Button	-1	Button	-1	Button	-1	Button	2	Button	1	Button	3	Button	-1	Button	2	Button	-1	Button	-1	Button	-1	Button	3	Button	-1	Button	3	Button	3	Button	-1
12	1	8x8	8	8	Button	5	Button	5	Button	3	Button	-1	Button	3	Button	3	Button	-1	Button	-1	Button	5	Button	-1	Button	-1	Button	-1	Button	-1	Button	-1	Button	-1	Button	-1	Button	-1	Button	3	Button	-1	Button	3	Button	-1	Button	2	Button	1	Button	-1	Button	-1	Button	-1	Button	5	Button	2	Button	-1	Button	-1	Button	-1	Button	1	Button	3	Button	4	Button	-1	Button	4	Button	2	Button	-1	Button	-1	Button	3	Button	-1	Button	4	Button	-1	Button	-1	Button	-1	Button	-1	Button	-1	Button	-1	Button	1	Button	5	Button	-1	Button	-1	Button	-1	Button	-1	Button	2	Button	-1	Button	-1	Button	4	Button	5	Button	-1	Button	-1	Button	-1	Button	-1	Button	-1
13	1	8x8	8	8	Button	-1	Button	1	Button	2	Button	-1	Button	4	Button	-1	Button	4	Button	4	Button	-1	Button	-1	Button	5	Button	4	Button	-1	Button	5	Button	-1	Button	2	Button	-1	Button	-1	Button	-1	Button	1	Button	2	Button	4	Button	4	Button	2	Button	1	Button	3	Button	-1	Button	-1	Button	4	Button	5	Button	-1	Button	1	Button	-1	Button	3	Button	1	Button	-1	Button	2	Button	-1	Button	-1	Button	-1	Button	-1	Button	5	Button	-1	Button	1	Button	2	Button	-1	Button	2	Button	-1	Button	5	Button	3	Button	-1	Button	-1	Button	-1	Button	-1	Button	-1	Button	-1	Button	5	Button	3	Button	-1	Button	3	Button	4	Button	1	Button	-1	Button	-1
14	1	8x8	8	8	Block	-1	Block	-1	Block	-1	Button	2	Button	1	Button	5	Button	-1	Button	-1	Block	-1	Block	-1	Button	-1	Button	1	Button	-1	Button	-1	Button	5	Button	-1	Button	-1	Button	2	Button	-1	Button	2	Button	-1	Button	5	Button	1	Button	-1	Button	-1	Button	1	Button	-1	Button	-1	Button	2	Button	5	Button	-1	Button	-1	Button	-1	Button	3	Button	4	Button	2	Button	4	Button	-1	Button	-1	Button	4	Button	1	Button	1	Button	-1	Button	4	Button	-1	Button	4	Button	4	Button	-1	Button	-1	Button	1	Button	3	Button	3	Button	-1	Button	-1	Block	-1	Block	-1	Button	2	Button	4	Button	-1	Button	-1	Button	4	Block	-1	Block	-1	Block	-1
15	1	8x8	8	8	Button	-1	Button	-1	Button	-1	Button	-1	Button	4	Button	-1	Button	-1	Button	-1	Button	-1	Button	-1	Button	1	Button	1	Button	-1	Button	-1	Button	3	Button	-1	Button	-1	Button	-1	Button	-1	Button	-1	Button	-1	Button	3	Button	-1	Button	-1	Button	3	Button	4	Button	1	Button	-1	Button	1	Button	4	Button	4	Button	3	Button	-1	Button	5	Button	5	Button	3	Button	1	Button	-1	Button	4	Button	-1	Button	-1	Button	4	Button	1	Button	-1	Button	-1	Button	-1	Button	3	Button	-1	Button	-1	Button	4	Button	-1	Button	-1	Button	-1	Button	3	Button	-1	Button	-1	Button	5	Button	2	Button	-1	Button	2	Button	2	Button	-1	Button	-1	Button	-1
16	1	8x8	8	8	Button	2	Button	-1	Button	2	Button	2	Button	-1	Button	-1	Button	-1	Button	-1	Button	-1	Button	-1	Button	2	Button	-1	Button	5	Button	-1	Button	-1	Button	-1	Block	-1	Button	-1	Button	3	Button	4	Button	5	Button	4	Button	-1	Block	-1	Block	-1	Block	-1	Button	1	Button	4	Button	-1	Button	4	Block	-1	Block	-1	Block	-1	Block	-1	Button	4	Button	-1	Button	5	Button	5	Block	-1	Block	-1	Button	4	Button	-1	Button	1	Button	-1	Button	5	Button	-1	Button	3	Block	-1	Button	3	Button	3	Button	1	Button	3	Button	3	Button	-1	Button	5	Button	5	Button	-1	Button	-1	Button	-1	Button	3	Button	-1	Button	1	Button	5	Button	-1
17	1	8x8	8	8	Button	-1	Button	-1	Button	-1	Button	2	Button	-1	Button	1	Button	1	Button	-1	Button	-1	Button	-1	Button	-1	Button	-1	Button	-1	Button	3	Button	-1	Button	2	Button	-1	Button	-1	Button	3	Button	2	Button	-1	Button	-1	Button	3	Button	-1	Button	2	Button	4	Button	-1	Button	2	Button	5	Button	-1	Button	5	Button	5	Button	-1	Button	3	Button	-1	Button	3	Button	1	Button	-1	Button	-1	Button	-1	Button	5	Button	-1	Button	5	Button	3	Button	1	Button	4	Button	-1	Button	-1	Button	5	Button	2	Button	2	Button	-1	Button	2	Button	5	Button	-1	Button	-1	Button	-1	Button	-1	Button	1	Button	4	Button	1	Button	-1	Button	-1	Button	-1
18	1	8x8	8	8	Button	-1	Button	-1	Button	-1	Button	3	Button	5	Button	2	Block	-1	Block	-1	Button	1	Button	5	Button	2	Button	4	Button	3	Button	3	Block	-1	Block	-1	Button	1	Button	-1	Button	1	Button	-1	Button	-1	Button	-1	Button	4	Block	-1	Button	-1	Button	4	Button	3	Button	5	Button	2	Button	-1	Button	3	Button	-1	Button	-1	Button	-1	Button	3	Button	5	Button	5	Button	2	Button	-1	Button	3	Block	-1	Button	-1	Button	-1	Button	-1	Button	5	Button	-1	Button	4	Button	-1	Block	-1	Block	-1	Button	3	Button	-1	Button	4	Button	4	Button	-1	Button	-1	Block	-1	Block	-1	Button	-1	Button	-1	Button	3	Button	5	Button	5	Button	-1
19	1	8x8	8	8	Button	-1	Button	1	Button	-1	Button	-1	Button	-1	Button	-1	Button	2	Button	-1	Button	2	Button	2	Button	-1	Button	-1	Button	-1	Button	4	Button	-1	Button	3	Button	-1	Button	-1	Button	-1	Button	-1	Button	2	Button	4	Button	-1	Button	3	Button	-1	Button	4	Button	-1	Button	-1	Button	-1	Button	3	Button	5	Button	2	Button	5	Button	-1	Button	4	Button	1	Button	3	Button	2	Button	-1	Button	5	Button	4	Button	4	Button	1	Button	-1	Button	5	Button	-1	Button	5	Button	-1	Button	-1	Button	-1	Button	-1	Button	5	Button	-1	Button	-1	Button	5	Button	-1	Button	-1	Button	-1	Button	-1	Button	-1	Button	5	Button	-1	Button	-1	Button	-1
20	1	8x8	8	8	Button	-1	Button	-1	Button	-1	Button	-1	Button	4	Button	1	Button	-1	Button	-1	Button	2	Button	2	Button	1	Button	4	Button	-1	Button	1	Button	-1	Button	-1	Button	-1	Button	3	Button	1	Button	2	Button	1	Button	2	Button	4	Button	-1	Button	-1	Button	-1	Button	3	Button	-1	Button	1	Button	2	Button	3	Button	-1	Button	-1	Button	2	Button	1	Button	-1	Button	3	Button	-1	Button	4	Button	4	Button	-1	Button	-1	Button	-1	Button	-1	Button	3	Button	3	Button	-1	Button	-1	Button	-1	Button	-1	Button	-1	Button	-1	Button	-1	Button	-1	Button	4	Button	-1	Button	3	Button	-1	Button	-1	Button	-1	Button	-1	Button	-1	Button	-1	Button	-1
21	2	8x8	8	8	Block	-1	Block	-1	Block	-1	Button	-1	Button	5	Button	-1	Button	-1	Button	1	Block	-1	Block	-1	Button	5	Button	5	Button	2	Button	-1	Button	1	Button	-1	Button	5	Button	-1	Button	-1	Button	5	Button	3	Button	-1	Button	2	Button	-1	Button	-1	Button	-1	Button	4	Button	4	Button	1	Button	3	Button	2	Button	-1	Button	3	Button	1	Button	-1	Button	-1	Button	-1	Button	-1	Button	-1	Button	2	Button	-1	Button	-1	Button	1	Button	-1	Button	-1	Button	-1	Button	-1	Button	-1	Button	-1	Button	1	Button	-1	Button	-1	Button	5	Button	1	Block	-1	Block	-1	Button	-1	Button	4	Button	-1	Button	-1	Button	-1	Block	-1	Block	-1	Block	-1
22	2	8x8	8	8	Block	-1	Block	-1	Button	1	Button	-1	Button	-1	Button	-1	Button	4	Button	-1	Block	-1	Block	-1	Button	-1	Button	-1	Button	-1	Button	4	Button	-1	Button	-1	Block	-1	Button	-1	Button	-1	Button	-1	Button	1	Button	-1	Button	-1	Button	-1	Button	-1	Button	-1	Button	-1	Button	1	Button	5	Button	1	Button	-1	Button	4	Button	4	Button	4	Button	-1	Button	4	Button	4	Button	-1	Button	-1	Button	2	Button	-1	Button	-1	Button	2	Button	3	Button	-1	Button	4	Button	5	Block	-1	Button	-1	Button	-1	Button	-1	Button	2	Button	4	Button	5	Block	-1	Block	-1	Button	-1	Button	3	Button	-1	Button	3	Button	-1	Button	-1	Block	-1	Block	-1
23	2	8x8	8	8	Button	2	Button	-1	Button	-1	Button	-1	Button	4	Block	-1	Block	-1	Block	-1	Button	-1	Button	1	Button	1	Button	5	Button	1	Button	-1	Block	-1	Block	-1	Button	4	Button	4	Button	-1	Button	4	Button	3	Button	-1	Button	-1	Button	-1	Button	-1	Button	1	Button	-1	Button	1	Button	-1	Button	3	Button	2	Button	-1	Button	3	Button	1	Button	5	Button	2	Button	-1	Button	2	Button	2	Button	-1	Button	-1	Button	-1	Button	-1	Button	5	Button	-1	Button	-1	Button	-1	Button	-1	Block	-1	Block	-1	Button	-1	Button	-1	Button	-1	Button	-1	Button	2	Button	2	Block	-1	Block	-1	Block	-1	Button	1	Button	-1	Button	-1	Button	-1	Button	-1
24	2	8x8	8	8	Block	-1	Block	-1	Button	-1	Button	-1	Button	-1	Button	-1	Button	4	Button	1	Block	-1	Block	-1	Button	1	Button	-1	Button	3	Button	-1	Button	3	Button	5	Block	-1	Button	-1	Button	-1	Button	1	Button	2	Button	3	Button	4	Button	-1	Button	-1	Button	-1	Button	2	Button	-1	Button	-1	Button	-1	Button	5	Button	-1	Button	5	Button	-1	Button	-1	Button	3	Button	-1	Button	-1	Button	-1	Button	-1	Button	-1	Button	5	Button	2	Button	3	Button	-1	Button	3	Button	3	Block	-1	Button	5	Button	4	Button	2	Button	-1	Button	-1	Button	-1	Block	-1	Block	-1	Button	-1	Button	-1	Button	5	Button	5	Button	-1	Button	-1	Block	-1	Block	-1
25	2	8x8	8	8	Button	-1	Button	4	Button	-1	Button	1	Button	-1	Block	-1	Block	-1	Block	-1	Button	5	Button	5	Button	4	Button	-1	Button	-1	Button	2	Block	-1	Block	-1	Button	-1	Button	-1	Button	2	Button	1	Button	-1	Button	1	Button	-1	Button	-1	Button	-1	Button	5	Button	2	Button	-1	Button	3	Button	-1	Button	3	Button	3	Button	2	Button	5	Button	-1	Button	4	Button	2	Button	4	Button	-1	Button	4	Button	-1	Button	-1	Button	-1	Button	3	Button	-1	Button	2	Button	4	Button	-1	Block	-1	Block	-1	Button	2	Button	-1	Button	-1	Button	-1	Button	-1	Button	-1	Block	-1	Block	-1	Block	-1	Button	-1	Button	-1	Button	-1	Button	-1	Button	2
26	2	8x8	8	8	Button	-1	Button	4	Button	-1	Button	-1	Button	-1	Button	-1	Block	-1	Block	-1	Button	-1	Button	5	Button	-1	Button	-1	Button	-1	Button	-1	Block	-1	Block	-1	Button	-1	Button	4	Button	4	Button	-1	Button	4	Button	1	Button	1	Block	-1	Button	3	Button	-1	Button	3	Button	-1	Button	-1	Button	5	Button	-1	Button	-1	Button	-1	Button	-1	Button	3	Button	-1	Button	1	Button	5	Button	5	Button	-1	Block	-1	Button	2	Button	2	Button	-1	Button	2	Button	-1	Button	5	Button	1	Block	-1	Block	-1	Button	3	Button	-1	Button	-1	Button	5	Button	-1	Button	-1	Block	-1	Block	-1	Button	-1	Button	-1	Button	1	Button	2	Button	1	Button	-1
27	2	8x8	8	8	Button	3	Button	4	Button	1	Button	-1	Button	-1	Button	4	Block	-1	Block	-1	Button	-1	Button	-1	Button	4	Button	1	Button	-1	Button	5	Block	-1	Block	-1	Button	1	Button	3	Button	-1	Button	3	Button	3	Button	-1	Button	-1	Block	-1	Button	2	Button	4	Button	3	Button	5	Button	2	Button	1	Button	-1	Button	-1	Button	-1	Button	2	Button	4	Button	-1	Button	5	Button	-1	Button	-1	Button	-1	Block	-1	Button	-1	Button	-1	Button	-1	Button	3	Button	-1	Button	4	Button	-1	Block	-1	Block	-1	Button	-1	Button	2	Button	-1	Button	3	Button	5	Button	-1	Block	-1	Block	-1	Button	-1	Button	3	Button	-1	Button	-1	Button	-1	Button	-1
28	2	8x8	8	8	Button	-1	Button	-1	Button	5	Button	-1	Button	2	Block	-1	Block	-1	Block	-1	Button	-1	Button	-1	Button	-1	Button	-1	Button	5	Button	-1	Block	-1	Block	-1	Button	-1	Button	2	Button	-1	Button	5	Button	-1	Button	2	Button	4	Button	-1	Button	2	Button	-1	Button	1	Button	-1	Button	-1	Button	2	Button	-1	Button	-1	Button	-1	Button	-1	Button	2	Button	1	Button	4	Button	3	Button	-1	Button	-1	Button	-1	Button	1	Button	3	Button	4	Button	-1	Button	-1	Button	-1	Button	4	Block	-1	Block	-1	Button	-1	Button	-1	Button	-1	Button	1	Button	-1	Button	-1	Block	-1	Block	-1	Block	-1	Button	-1	Button	3	Button	-1	Button	-1	Button	-1
29	2	8x8	8	8	Button	1	Button	-1	Button	1	Button	1	Button	4	Button	5	Block	-1	Block	-1	Button	-1	Button	-1	Button	5	Button	2	Button	-1	Button	4	Block	-1	Block	-1	Button	3	Button	-1	Button	5	Button	4	Button	3	Button	-1	Button	-1	Block	-1	Button	2	Button	1	Button	2	Button	4	Button	-1	Button	3	Button	-1	Button	4	Button	3	Button	3	Button	-1	Button	3	Button	3	Button	-1	Button	-1	Button	-1	Block	-1	Button	-1	Button	4	Button	4	Button	-1	Button	-1	Button	-1	Button	3	Block	-1	Block	-1	Button	-1	Button	-1	Button	-1	Button	-1	Button	-1	Button	-1	Block	-1	Block	-1	Button	-1	Button	-1	Button	-1	Button	-1	Button	3	Button	-1
30	2	8x8	8	8	Button	5	Button	-1	Button	-1	Button	-1	Button	-1	Button	-1	Block	-1	Block	-1	Button	5	Button	4	Button	-1	Button	-1	Button	-1	Button	4	Block	-1	Block	-1	Button	-1	Button	-1	Button	4	Button	3	Button	-1	Button	-1	Button	-1	Block	-1	Button	5	Button	-1	Button	2	Button	-1	Button	-1	Button	3	Button	1	Button	2	Button	-1	Button	-1	Button	2	Button	1	Button	3	Button	5	Button	2	Button	-1	Block	-1	Button	-1	Button	-1	Button	1	Button	5	Button	3	Button	2	Button	2	Block	-1	Block	-1	Button	3	Button	-1	Button	5	Button	-1	Button	-1	Button	2	Block	-1	Block	-1	Button	5	Button	1	Button	3	Button	-1	Button	3	Button	3
31	2	8x8	8	8	Button	-1	Button	-1	Button	3	Button	1	Block	-1	Block	-1	Block	-1	Block	-1	Button	-1	Button	3	Button	-1	Button	2	Button	2	Button	-1	Button	2	Block	-1	Button	-1	Button	-1	Button	2	Button	3	Button	4	Button	1	Button	4	Button	-1	Button	-1	Button	-1	Button	1	Button	2	Button	-1	Button	-1	Button	-1	Button	4	Button	3	Button	2	Button	5	Button	-1	Button	5	Button	3	Button	-1	Button	-1	Button	-1	Button	2	Button	-1	Button	-1	Button	-1	Button	-1	Button	3	Button	-1	Block	-1	Button	3	Button	-1	Button	-1	Button	-1	Button	5	Button	1	Button	-1	Block	-1	Block	-1	Block	-1	Block	-1	Button	1	Button	1	Button	-1	Button	1
32	2	8x8	8	8	Button	-1	Button	5	Button	-1	Button	4	Button	1	Block	-1	Block	-1	Block	-1	Button	-1	Button	4	Button	1	Button	-1	Button	1	Button	5	Button	-1	Block	-1	Button	3	Button	5	Button	3	Button	-1	Button	2	Button	4	Button	-1	Block	-1	Button	-1	Button	5	Button	3	Button	-1	Button	-1	Button	-1	Button	-1	Button	2	Button	-1	Button	4	Button	1	Button	4	Button	4	Button	-1	Button	-1	Button	3	Block	-1	Button	-1	Button	1	Button	-1	Button	-1	Button	2	Button	3	Button	-1	Block	-1	Button	-1	Button	-1	Button	-1	Button	2	Button	-1	Button	1	Button	-1	Block	-1	Block	-1	Block	-1	Button	-1	Button	3	Button	4	Button	-1	Button	-1
33	2	8x8	8	8	Button	-1	Button	4	Button	4	Button	-1	Button	4	Block	-1	Block	-1	Block	-1	Button	2	Button	1	Button	1	Button	4	Button	2	Button	3	Block	-1	Block	-1	Button	-1	Button	2	Button	-1	Button	5	Button	-1	Button	-1	Button	-1	Button	-1	Button	-1	Button	1	Button	-1	Button	5	Button	-1	Button	-1	Button	-1	Button	3	Button	-1	Button	5	Button	4	Button	2	Button	4	Button	4	Button	3	Button	-1	Button	5	Button	-1	Button	-1	Button	-1	Button	-1	Button	-1	Button	-1	Button	3	Block	-1	Block	-1	Button	-1	Button	-1	Button	-1	Button	-1	Button	-1	Button	-1	Block	-1	Block	-1	Block	-1	Button	4	Button	-1	Button	-1	Button	-1	Button	-1
34	2	8x8	8	8	Button	-1	Button	4	Button	-1	Button	-1	Button	-1	Button	5	Block	-1	Block	-1	Button	2	Button	-1	Button	2	Button	2	Button	5	Button	-1	Block	-1	Block	-1	Button	-1	Button	-1	Button	5	Button	-1	Button	-1	Button	3	Button	-1	Block	-1	Button	-1	Button	4	Button	5	Button	2	Button	-1	Button	3	Button	-1	Button	-1	Button	-1	Button	-1	Button	4	Button	-1	Button	-1	Button	-1	Button	1	Button	4	Block	-1	Button	-1	Button	1	Button	-1	Button	-1	Button	2	Button	2	Button	4	Block	-1	Block	-1	Button	-1	Button	2	Button	4	Button	4	Button	1	Button	-1	Block	-1	Block	-1	Button	3	Button	-1	Button	4	Button	4	Button	1	Button	-1
35	2	8x8	8	8	Block	-1	Block	-1	Button	5	Button	-1	Button	-1	Button	-1	Button	2	Button	-1	Block	-1	Block	-1	Button	-1	Button	-1	Button	-1	Button	3	Button	-1	Button	2	Block	-1	Button	4	Button	-1	Button	1	Button	1	Button	3	Button	2	Button	3	Button	-1	Button	5	Button	-1	Button	5	Button	5	Button	-1	Button	-1	Button	-1	Button	-1	Button	1	Button	-1	Button	4	Button	-1	Button	-1	Button	-1	Button	-1	Button	4	Button	-1	Button	1	Button	-1	Button	4	Button	-1	Button	-1	Block	-1	Button	-1	Button	1	Button	5	Button	-1	Button	5	Button	5	Block	-1	Block	-1	Button	-1	Button	1	Button	5	Button	1	Button	-1	Button	-1	Block	-1	Block	-1
36	2	8x8	8	8	Button	-1	Button	2	Button	-1	Button	-1	Button	3	Button	2	Button	-1	Button	2	Button	-1	Button	-1	Button	-1	Button	-1	Button	-1	Button	2	Button	-1	Button	-1	Button	-1	Button	-1	Button	2	Button	-1	Button	3	Button	-1	Button	-1	Button	-1	Button	-1	Button	-1	Button	3	Button	1	Button	3	Button	-1	Button	-1	Button	-1	Button	2	Button	-1	Button	4	Button	1	Button	4	Button	1	Button	-1	Button	-1	Button	-1	Button	-1	Button	-1	Button	4	Button	4	Button	-1	Button	4	Button	-1	Button	-1	Button	-1	Button	-1	Button	-1	Button	-1	Button	4	Button	-1	Button	-1	Button	-1	Button	-1	Button	-1	Button	4	Button	-1	Button	-1	Button	-1	Button	-1
37	2	8x8	8	8	Button	4	Button	-1	Button	3	Button	3	Button	4	Button	-1	Button	-1	Button	-1	Button	-1	Button	4	Button	-1	Button	3	Button	3	Button	-1	Button	4	Button	-1	Button	5	Button	-1	Button	-1	Button	-1	Button	-1	Button	4	Button	4	Button	-1	Button	5	Button	5	Button	2	Button	4	Button	3	Button	-1	Button	3	Button	4	Button	-1	Button	-1	Button	-1	Button	2	Button	4	Button	-1	Button	-1	Button	-1	Button	5	Button	1	Button	3	Button	-1	Button	-1	Button	-1	Button	-1	Button	-1	Button	-1	Button	2	Button	1	Button	-1	Button	-1	Button	-1	Button	-1	Button	-1	Button	1	Button	-1	Button	-1	Button	-1	Button	-1	Button	-1	Button	-1	Button	-1
38	2	8x8	8	8	Button	-1	Button	3	Button	-1	Button	2	Button	-1	Button	3	Button	-1	Button	-1	Button	-1	Button	2	Button	3	Button	3	Button	-1	Button	-1	Button	5	Button	-1	Button	-1	Button	-1	Button	-1	Button	1	Button	1	Button	-1	Button	1	Button	1	Button	-1	Button	2	Button	5	Button	-1	Button	-1	Button	-1	Button	-1	Button	-1	Button	-1	Button	2	Button	-1	Button	-1	Button	1	Button	-1	Button	1	Button	1	Button	-1	Button	-1	Button	4	Button	-1	Button	5	Button	-1	Button	4	Button	-1	Button	3	Button	-1	Button	3	Button	4	Button	5	Button	-1	Button	-1	Button	-1	Button	1	Button	-1	Button	5	Button	5	Button	-1	Button	5	Button	5	Button	-1
39	2	8x8	8	8	Block	-1	Block	-1	Block	-1	Button	-1	Button	3	Button	-1	Button	-1	Button	-1	Block	-1	Block	-1	Button	1	Button	1	Button	-1	Button	-1	Button	3	Button	-1	Button	5	Button	5	Button	3	Button	5	Button	5	Button	1	Button	3	Button	-1	Button	-1	Button	1	Button	1	Button	3	Button	1	Button	-1	Button	4	Button	3	Button	-1	Button	-1	Button	-1	Button	5	Button	5	Button	2	Button	4	Button	-1	Button	1	Button	3	Button	-1	Button	4	Button	-1	Button	-1	Button	-1	Button	2	Button	3	Button	5	Button	-1	Button	2	Button	-1	Button	-1	Block	-1	Block	-1	Button	5	Button	-1	Button	5	Button	-1	Button	-1	Block	-1	Block	-1	Block	-1
40	2	8x8	8	8	Button	1	Button	-1	Button	-1	Button	-1	Button	1	Button	-1	Button	1	Button	2	Button	5	Button	4	Button	-1	Button	4	Button	-1	Button	-1	Button	1	Button	2	Button	2	Button	5	Button	4	Button	2	Button	-1	Button	-1	Button	-1	Button	3	Button	-1	Button	-1	Button	-1	Button	-1	Button	2	Button	-1	Button	3	Button	2	Button	-1	Button	-1	Button	1	Button	5	Button	4	Button	5	Button	-1	Button	2	Button	5	Button	1	Button	-1	Button	-1	Button	-1	Button	-1	Button	2	Button	-1	Button	-1	Button	-1	Button	-1	Button	3	Button	5	Button	-1	Button	5	Button	5	Button	-1	Button	-1	Button	-1	Button	-1	Button	-1	Button	2	Button	-1	Button	-1
41	3	8x8	8	8	Button	-1	Button	4	Button	-1	Button	4	Button	-1	Button	3	Button	-1	Button	-1	Button	1	Button	4	Button	5	Button	-1	Button	-1	Button	1	Button	-1	Button	3	Button	3	Button	-1	Button	3	Button	3	Button	-1	Button	-1	Button	-1	Button	-1	Button	5	Button	5	Button	3	Button	1	Button	1	Button	-1	Button	-1	Button	-1	Button	-1	Button	-1	Button	5	Button	-1	Button	1	Button	-1	Button	1	Button	1	Button	-1	Button	2	Button	-1	Button	2	Button	3	Button	-1	Button	-1	Button	-1	Button	-1	Button	-1	Button	5	Button	-1	Button	-1	Button	-1	Button	-1	Button	-1	Button	2	Button	-1	Button	5	Button	-1	Button	5	Button	-1	Button	-1	Button	-1
42	3	8x8	8	8	Button	-1	Button	-1	Button	-1	Button	2	Button	-1	Button	-1	Button	-1	Button	-1	Button	2	Button	3	Button	-1	Button	3	Button	3	Button	2	Button	5	Button	-1	Button	2	Button	-1	Button	3	Button	1	Button	3	Button	3	Button	-1	Button	5	Button	3	Button	2	Button	4	Button	-1	Button	4	Button	1	Button	5	Button	-1	Button	4	Button	2	Button	-1	Button	-1	Button	-1	Button	-1	Button	5	Button	-1	Button	-1	Button	-1	Button	5	Button	5	Button	-1	Button	1	Button	3	Button	-1	Button	4	Button	2	Button	-1	Button	4	Button	4	Button	-1	Button	5	Button	-1	Button	-1	Button	2	Button	-1	Button	5	Button	-1	Button	-1	Button	-1	Button	-1
43	3	8x8	8	8	Button	1	Button	3	Button	1	Button	-1	Block	-1	Block	-1	Block	-1	Block	-1	Button	4	Button	-1	Button	1	Button	2	Button	-1	Button	-1	Button	-1	Block	-1	Button	3	Button	3	Button	2	Button	-1	Button	2	Button	3	Button	-1	Button	4	Button	4	Button	4	Button	1	Button	4	Button	4	Button	1	Button	-1	Button	-1	Button	5	Button	-1	Button	5	Button	5	Button	4	Button	1	Button	4	Button	4	Button	-1	Button	3	Button	-1	Button	3	Button	3	Button	2	Button	-1	Button	-1	Block	-1	Button	-1	Button	-1	Button	-1	Button	-1	Button	-1	Button	-1	Button	-1	Block	-1	Block	-1	Block	-1	Block	-1	Button	5	Button	2	Button	2	Button	1
44	3	8x8	8	8	Button	1	Button	-1	Button	-1	Button	-1	Button	1	Button	-1	Button	-1	Button	-1	Button	-1	Button	1	Button	2	Button	-1	Button	2	Button	-1	Button	-1	Button	-1	Button	-1	Button	2	Button	-1	Button	-1	Button	-1	Button	-1	Button	1	Button	1	Button	-1	Button	2	Button	4	Button	1	Button	-1	Button	1	Button	5	Button	-1	Button	-1	Button	4	Button	-1	Button	3	Button	4	Button	-1	Button	-1	Button	-1	Button	-1	Button	-1	Button	3	Button	2	Button	-1	Button	5	Button	5	Button	-1	Button	3	Button	-1	Button	2	Button	-1	Button	4	Button	-1	Button	-1	Button	-1	Button	3	Button	-1	Button	4	Button	-1	Button	-1	Button	-1	Button	4	Button	-1
45	3	8x8	8	8	Button	-1	Button	3	Button	1	Button	4	Button	-1	Button	-1	Button	2	Button	-1	Button	5	Button	3	Button	-1	Button	4	Button	2	Button	-1	Button	3	Button	-1	Button	4	Button	5	Button	-1	Button	3	Button	2	Button	1	Button	-1	Button	-1	Button	-1	Button	3	Button	-1	Button	5	Button	-1	Button	-1	Button	-1	Button	2	Button	-1	Button	-1	Button	3	Button	5	Button	5	Button	1	Button	-1	Button	-1	Button	5	Button	-1	Button	-1	Button	-1	Button	3	Button	1	Button	-1	Button	-1	Button	-1	Button	5	Button	2	Button	2	Button	-1	Button	3	Button	5	Button	-1	Button	-1	Button	-1	Button	-1	Button	5	Button	-1	Button	-1	Button	-1	Button	-1
46	3	8x8	8	8	Button	-1	Button	-1	Button	3	Button	-1	Button	-1	Block	-1	Block	-1	Block	-1	Button	-1	Button	4	Button	4	Button	-1	Button	-1	Button	-1	Button	3	Block	-1	Button	-1	Button	-1	Button	2	Button	2	Button	3	Button	-1	Button	-1	Block	-1	Button	5	Button	-1	Button	2	Button	1	Button	-1	Button	3	Button	-1	Button	1	Button	4	Button	-1	Button	-1	Button	2	Button	5	Button	-1	Button	1	Button	-1	Block	-1	Button	-1	Button	5	Button	-1	Button	-1	Button	-1	Button	-1	Button	-1	Block	-1	Button	-1	Button	-1	Button	2	Button	1	Button	2	Button	-1	Button	-1	Block	-1	Block	-1	Block	-1	Button	1	Button	2	Button	-1	Button	-1	Button	-1
47	3	8x8	8	8	Block	-1	Block	-1	Block	-1	Button	5	Button	5	Button	-1	Button	-1	Button	3	Block	-1	Button	1	Button	2	Button	3	Button	-1	Button	-1	Button	-1	Button	5	Block	-1	Button	-1	Button	1	Button	2	Button	3	Button	3	Button	-1	Button	-1	Button	-1	Button	1	Button	5	Button	3	Button	3	Button	5	Button	-1	Button	2	Button	-1	Button	1	Button	4	Button	5	Button	5	Button	3	Button	-1	Button	-1	Button	-1	Button	3	Button	4	Button	-1	Button	-1	Button	-1	Button	-1	Block	-1	Button	3	Button	-1	Button	-1	Button	-1	Button	-1	Button	4	Button	-1	Block	-1	Button	-1	Button	-1	Button	4	Button	-1	Button	-1	Block	-1	Block	-1	Block	-1
48	3	8x8	8	8	Block	-1	Block	-1	Block	-1	Button	1	Button	4	Button	-1	Button	-1	Button	-1	Block	-1	Block	-1	Button	-1	Button	1	Button	-1	Button	5	Button	-1	Button	-1	Button	-1	Button	-1	Button	-1	Button	-1	Button	5	Button	4	Button	-1	Button	-1	Button	-1	Button	-1	Button	3	Button	1	Button	-1	Button	2	Button	4	Button	5	Button	-1	Button	1	Button	3	Button	1	Button	-1	Button	-1	Button	1	Button	2	Button	5	Button	-1	Button	5	Button	5	Button	-1	Button	-1	Button	2	Button	3	Button	5	Button	-1	Button	3	Button	-1	Button	1	Button	1	Block	-1	Block	-1	Button	-1	Button	-1	Button	-1	Button	1	Button	2	Block	-1	Block	-1	Block	-1
49	3	8x8	8	8	Button	-1	Button	-1	Button	3	Button	4	Button	1	Button	-1	Button	-1	Button	2	Button	1	Button	4	Button	4	Button	-1	Button	-1	Button	4	Button	3	Button	2	Button	-1	Button	5	Button	1	Button	2	Button	4	Button	-1	Button	3	Button	-1	Button	-1	Button	1	Button	-1	Button	-1	Button	5	Button	-1	Button	4	Button	2	Button	2	Button	2	Button	-1	Button	2	Button	5	Button	-1	Button	-1	Button	-1	Button	-1	Button	3	Button	-1	Button	3	Button	-1	Button	-1	Button	-1	Button	-1	Button	2	Button	3	Button	-1	Button	-1	Button	5	Button	-1	Button	-1	Button	-1	Button	-1	Button	-1	Button	-1	Button	-1	Button	5	Button	-1	Button	-1	Button	-1
50	3	8x8	8	8	Button	-1	Button	5	Button	-1	Button	-1	Button	-1	Button	-1	Button	2	Button	5	Button	-1	Button	-1	Button	5	Button	-1	Button	1	Button	2	Button	-1	Button	-1	Button	5	Button	4	Button	1	Button	-1	Button	1	Button	-1	Button	-1	Button	2	Button	4	Button	4	Button	1	Button	2	Button	5	Button	1	Button	5	Button	-1	Button	4	Button	2	Button	-1	Button	3	Button	-1	Button	5	Button	-1	Button	5	Button	-1	Button	2	Button	3	Button	1	Button	4	Button	4	Button	-1	Button	-1	Button	4	Button	-1	Button	1	Button	-1	Button	-1	Button	-1	Button	3	Button	2	Button	-1	Button	2	Button	3	Button	-1	Button	3	Button	-1	Button	3	Button	-1
51	3	8x8	8	8	Button	-1	Button	-1	Button	-1	Button	-1	Button	3	Button	-1	Button	5	Button	-1	Button	-1	Button	-1	Button	4	Button	-1	Button	3	Button	2	Button	4	Button	-1	Button	-1	Button	1	Button	-1	Button	3	Button	5	Button	4	Button	3	Button	-1	Button	-1	Button	5	Button	1	Button	3	Button	-1	Button	2	Button	-1	Button	3	Button	1	Button	-1	Button	5	Button	4	Button	2	Button	1	Button	4	Button	-1	Button	5	Button	4	Button	-1	Button	-1	Button	-1	Button	-1	Button	1	Button	-1	Button	-1	Button	-1	Button	3	Button	-1	Button	4	Button	-1	Button	2	Button	2	Button	-1	Button	-1	Button	-1	Button	-1	Button	-1	Button	5	Button	1	Button	2
80	5	8x8	8	8	Block	-1	Block	-1	Button	-1	Button	-1	Button	2	Button	-1	Button	-1	Button	-1	Block	-1	Block	-1	Button	1	Button	1	Button	3	Button	2	Button	3	Button	-1	Block	-1	Button	-1	Button	2	Button	-1	Button	-1	Button	4	Button	5	Button	4	Button	5	Button	-1	Button	-1	Button	3	Button	5	Button	-1	Button	-1	Button	2	Button	-1	Button	5	Button	-1	Button	5	Button	-1	Button	5	Button	1	Button	-1	Button	1	Button	-1	Button	-1	Button	-1	Button	-1	Button	-1	Button	4	Block	-1	Button	-1	Button	-1	Button	-1	Button	5	Button	1	Button	-1	Block	-1	Block	-1	Button	-1	Button	-1	Button	-1	Button	1	Button	5	Button	1	Block	-1	Block	-1
81	5	8x8	8	8	Block	-1	Button	-1	Button	-1	Button	-1	Button	4	Button	3	Button	3	Button	-1	Block	-1	Button	5	Button	2	Button	2	Button	4	Button	3	Button	3	Button	-1	Block	-1	Button	-1	Button	-1	Button	3	Button	5	Button	-1	Button	-1	Button	1	Block	-1	Button	2	Button	3	Button	-1	Button	4	Button	1	Button	3	Block	-1	Block	-1	Button	-1	Button	5	Button	-1	Button	-1	Button	-1	Button	4	Block	-1	Button	-1	Button	5	Button	-1	Button	-1	Button	3	Button	1	Button	-1	Block	-1	Button	4	Button	-1	Button	-1	Button	-1	Button	-1	Button	-1	Button	-1	Block	-1	Button	4	Button	-1	Button	4	Button	-1	Button	-1	Button	-1	Button	-1	Block	-1
82	5	8x8	8	8	Button	-1	Button	2	Button	-1	Button	-1	Button	-1	Block	-1	Block	-1	Block	-1	Button	-1	Button	-1	Button	-1	Button	-1	Button	3	Button	-1	Block	-1	Block	-1	Button	-1	Button	-1	Button	-1	Button	2	Button	-1	Button	4	Button	-1	Button	3	Button	4	Button	-1	Button	2	Button	5	Button	-1	Button	5	Button	-1	Button	3	Button	-1	Button	3	Button	3	Button	5	Button	1	Button	-1	Button	3	Button	4	Button	2	Button	4	Button	4	Button	-1	Button	4	Button	1	Button	-1	Button	3	Block	-1	Block	-1	Button	3	Button	5	Button	-1	Button	-1	Button	-1	Button	1	Block	-1	Block	-1	Block	-1	Button	5	Button	-1	Button	4	Button	-1	Button	-1
83	5	8x8	8	8	Button	-1	Button	-1	Button	-1	Button	3	Button	4	Button	-1	Button	2	Button	1	Button	-1	Button	-1	Button	4	Button	4	Button	-1	Button	4	Button	-1	Button	2	Button	-1	Button	5	Button	-1	Button	5	Button	-1	Button	5	Button	1	Button	-1	Button	3	Button	-1	Button	3	Button	-1	Button	5	Button	2	Button	1	Button	-1	Button	5	Button	5	Button	-1	Button	-1	Button	2	Button	-1	Button	-1	Button	-1	Button	-1	Button	-1	Button	5	Button	-1	Button	3	Button	-1	Button	-1	Button	-1	Button	-1	Button	3	Button	-1	Button	-1	Button	-1	Button	3	Button	-1	Button	-1	Button	-1	Button	-1	Button	-1	Button	-1	Button	-1	Button	-1	Button	-1	Button	-1
84	5	8x8	8	8	Button	-1	Button	-1	Button	-1	Button	-1	Button	-1	Button	1	Button	-1	Button	3	Button	-1	Button	-1	Button	-1	Button	2	Button	-1	Button	5	Button	5	Button	-1	Button	5	Button	3	Button	5	Button	2	Button	5	Button	-1	Button	-1	Button	-1	Button	2	Button	-1	Button	-1	Button	1	Button	1	Button	4	Button	1	Button	-1	Button	5	Button	3	Button	-1	Button	2	Button	-1	Button	3	Button	3	Button	-1	Button	-1	Button	3	Button	-1	Button	3	Button	2	Button	4	Button	-1	Button	1	Button	-1	Button	-1	Button	4	Button	4	Button	2	Button	4	Button	1	Button	-1	Button	-1	Button	1	Button	4	Button	-1	Button	4	Button	-1	Button	-1	Button	2
85	5	8x8	8	8	Button	-1	Button	2	Button	-1	Button	-1	Button	-1	Button	5	Button	-1	Button	-1	Button	-1	Button	2	Button	1	Button	5	Button	-1	Button	4	Button	-1	Button	-1	Button	1	Button	-1	Button	-1	Button	-1	Button	5	Button	-1	Button	-1	Button	-1	Button	-1	Button	2	Button	2	Button	3	Button	1	Button	-1	Button	4	Button	4	Button	-1	Button	2	Button	2	Button	1	Button	-1	Button	1	Button	5	Button	1	Button	-1	Button	3	Button	-1	Button	4	Button	1	Button	3	Button	-1	Button	2	Button	-1	Button	-1	Button	3	Button	-1	Button	4	Button	5	Button	3	Button	2	Button	2	Button	3	Button	4	Button	5	Button	5	Button	-1	Button	3	Button	-1
86	5	8x8	8	8	Button	1	Button	1	Button	-1	Button	1	Button	2	Block	-1	Block	-1	Block	-1	Button	3	Button	3	Button	1	Button	3	Button	-1	Button	1	Button	-1	Block	-1	Button	3	Button	4	Button	2	Button	3	Button	4	Button	4	Button	2	Button	4	Button	2	Button	2	Button	3	Button	3	Button	4	Button	1	Button	4	Button	2	Button	-1	Button	-1	Button	1	Button	4	Button	1	Button	2	Button	3	Button	-1	Button	-1	Button	3	Button	3	Button	4	Button	1	Button	1	Button	2	Button	4	Block	-1	Button	-1	Button	1	Button	2	Button	1	Button	-1	Button	3	Button	3	Block	-1	Block	-1	Block	-1	Button	-1	Button	3	Button	4	Button	-1	Button	-1
87	5	8x8	8	8	Button	2	Button	-1	Button	-1	Button	4	Button	4	Button	3	Button	3	Button	-1	Button	-1	Button	3	Button	1	Button	-1	Button	4	Button	3	Button	1	Button	3	Button	1	Button	4	Button	1	Button	2	Button	1	Button	3	Button	1	Button	3	Button	1	Button	2	Button	-1	Button	-1	Button	3	Button	4	Button	4	Button	-1	Button	2	Button	2	Button	1	Button	2	Button	-1	Button	3	Button	1	Button	1	Button	1	Button	-1	Button	1	Button	2	Button	-1	Button	2	Button	-1	Button	3	Button	-1	Button	3	Button	4	Button	-1	Button	-1	Button	2	Button	3	Button	4	Button	4	Button	1	Button	-1	Button	3	Button	1	Button	1	Button	2	Button	-1
88	5	8x8	8	8	Block	-1	Block	-1	Block	-1	Button	2	Button	1	Button	2	Button	3	Button	-1	Block	-1	Button	1	Button	2	Button	-1	Button	-1	Button	-1	Button	1	Button	2	Button	-1	Button	-1	Button	-1	Button	-1	Button	2	Button	-1	Button	3	Button	2	Button	3	Button	3	Button	1	Button	3	Button	-1	Button	2	Button	-1	Button	-1	Button	3	Button	1	Button	2	Button	2	Button	-1	Button	-1	Button	3	Block	-1	Button	-1	Button	3	Button	-1	Button	3	Button	-1	Block	-1	Block	-1	Block	-1	Button	1	Button	1	Button	-1	Button	2	Button	1	Button	3	Button	2	Button	-1	Button	-1	Button	2	Button	2	Button	1	Button	1	Button	3	Button	3	Button	-1
89	5	8x8	8	8	Button	1	Button	-1	Button	-1	Button	-1	Button	1	Button	1	Button	2	Button	-1	Button	1	Button	3	Button	4	Button	1	Button	-1	Button	1	Button	1	Button	-1	Button	-1	Button	-1	Button	-1	Button	4	Button	1	Button	2	Button	2	Button	-1	Button	-1	Button	2	Button	-1	Button	4	Button	3	Button	4	Button	1	Button	1	Button	2	Button	2	Button	4	Button	3	Button	2	Button	-1	Button	4	Button	1	Button	3	Button	-1	Button	2	Button	-1	Button	1	Button	4	Button	3	Button	2	Button	3	Button	2	Button	4	Button	3	Button	-1	Button	4	Button	-1	Button	2	Button	3	Button	3	Button	4	Button	3	Button	-1	Button	2	Button	2	Button	3
90	5	8x8	8	8	Button	1	Button	-1	Button	5	Button	-1	Button	5	Button	-1	Block	-1	Block	-1	Button	3	Button	4	Button	3	Button	3	Button	5	Button	1	Block	-1	Block	-1	Button	5	Button	4	Button	2	Button	2	Button	1	Button	1	Button	-1	Block	-1	Button	-1	Button	5	Button	5	Button	3	Button	5	Button	-1	Button	-1	Button	2	Button	4	Button	3	Button	3	Button	1	Button	2	Button	1	Button	1	Button	2	Block	-1	Button	-1	Button	4	Button	-1	Button	4	Button	4	Button	-1	Button	-1	Block	-1	Block	-1	Button	1	Button	-1	Button	1	Button	-1	Button	2	Button	2	Block	-1	Block	-1	Button	-1	Button	1	Button	3	Button	4	Button	-1	Button	2
91	5	8x8	8	8	Button	-1	Button	-1	Button	1	Button	3	Button	-1	Button	-1	Button	2	Button	-1	Button	-1	Button	3	Button	4	Button	-1	Button	-1	Button	5	Button	-1	Button	-1	Button	1	Button	4	Button	2	Button	2	Button	3	Button	3	Button	-1	Button	3	Button	-1	Button	3	Button	4	Button	1	Button	-1	Button	-1	Button	-1	Button	-1	Button	5	Button	2	Button	-1	Button	1	Button	5	Button	-1	Button	5	Button	-1	Button	-1	Button	5	Button	1	Button	2	Button	-1	Button	5	Button	1	Button	-1	Button	-1	Button	4	Button	1	Button	2	Button	1	Button	-1	Button	-1	Button	-1	Button	4	Button	-1	Button	4	Button	5	Button	1	Button	-1	Button	3	Button	-1
92	5	8x8	8	8	Button	4	Button	-1	Button	-1	Button	5	Button	1	Button	-1	Button	-1	Button	-1	Button	-1	Button	4	Button	2	Button	4	Button	2	Button	2	Button	-1	Button	-1	Button	4	Button	-1	Button	5	Button	-1	Button	4	Button	3	Button	1	Button	3	Button	-1	Button	3	Button	-1	Button	1	Button	4	Button	2	Button	2	Button	-1	Button	2	Button	3	Button	1	Button	3	Button	1	Button	-1	Button	5	Button	-1	Button	-1	Button	-1	Button	-1	Button	3	Button	5	Button	2	Button	5	Button	-1	Button	-1	Button	-1	Button	5	Button	-1	Button	5	Button	2	Button	1	Button	-1	Button	5	Button	-1	Button	5	Button	5	Button	-1	Button	1	Button	-1	Button	-1
93	5	8x8	8	8	Button	-1	Button	-1	Button	2	Button	-1	Button	2	Button	2	Button	-1	Button	4	Button	-1	Button	-1	Button	2	Button	3	Button	-1	Button	4	Button	3	Button	4	Button	2	Button	2	Button	3	Button	2	Button	2	Button	3	Button	-1	Button	-1	Button	1	Button	-1	Button	4	Button	3	Button	-1	Button	4	Button	1	Button	-1	Button	1	Button	2	Button	1	Button	4	Button	1	Button	4	Button	-1	Button	-1	Button	-1	Button	4	Button	1	Button	4	Button	-1	Button	3	Button	1	Button	4	Button	1	Button	-1	Button	-1	Button	2	Button	3	Button	3	Button	1	Button	4	Button	2	Button	4	Button	1	Button	1	Button	4	Button	-1	Button	3	Button	2
94	5	8x8	8	8	Button	-1	Button	1	Button	1	Button	2	Button	-1	Button	4	Button	3	Button	4	Button	2	Button	1	Button	-1	Button	3	Button	1	Button	3	Button	4	Button	4	Button	-1	Button	-1	Button	1	Button	1	Button	-1	Button	3	Button	3	Button	-1	Button	-1	Button	3	Button	2	Button	3	Button	4	Button	2	Button	1	Button	1	Button	-1	Button	1	Button	1	Button	4	Button	-1	Button	2	Button	-1	Button	2	Button	3	Button	1	Button	1	Button	-1	Button	4	Button	3	Button	3	Button	2	Button	4	Button	3	Button	-1	Button	3	Button	1	Button	2	Button	-1	Button	-1	Button	-1	Button	1	Button	-1	Button	2	Button	4	Button	3	Button	2	Button	-1
95	5	8x8	8	8	Button	1	Button	1	Button	-1	Button	1	Button	4	Button	4	Button	-1	Button	4	Button	2	Button	2	Button	1	Button	3	Button	4	Button	-1	Button	-1	Button	4	Button	-1	Button	3	Button	2	Button	3	Button	3	Button	4	Button	1	Button	1	Button	3	Button	2	Button	-1	Button	-1	Button	4	Button	-1	Button	-1	Button	-1	Button	3	Button	-1	Button	2	Button	1	Button	3	Button	4	Button	1	Button	1	Button	-1	Button	2	Button	3	Button	-1	Button	1	Button	1	Button	-1	Button	1	Button	-1	Button	2	Button	-1	Button	4	Button	3	Button	3	Button	-1	Button	4	Button	2	Button	-1	Button	2	Button	2	Button	4	Button	3	Button	1	Button	3
96	5	8x8	8	8	Button	1	Button	1	Button	-1	Button	1	Button	2	Block	-1	Block	-1	Block	-1	Button	3	Button	3	Button	1	Button	3	Button	-1	Button	1	Button	-1	Block	-1	Button	2	Button	2	Button	3	Button	3	Button	4	Button	1	Button	4	Button	2	Button	-1	Button	-1	Button	1	Button	4	Button	1	Button	2	Button	3	Button	-1	Button	-1	Button	3	Button	3	Button	4	Button	1	Button	1	Button	2	Button	4	Button	3	Button	4	Button	2	Button	3	Button	4	Button	4	Button	2	Button	4	Block	-1	Button	-1	Button	1	Button	2	Button	1	Button	-1	Button	3	Button	3	Block	-1	Block	-1	Block	-1	Button	-1	Button	3	Button	4	Button	-1	Button	-1
97	5	8x8	8	8	Button	2	Button	-1	Button	-1	Button	4	Button	4	Button	3	Button	3	Button	-1	Button	-1	Button	3	Button	4	Button	-1	Button	-1	Button	2	Button	3	Button	4	Button	4	Button	1	Button	-1	Button	3	Button	1	Button	1	Button	2	Button	-1	Button	-1	Button	3	Button	1	Button	-1	Button	4	Button	3	Button	1	Button	3	Button	1	Button	4	Button	1	Button	2	Button	1	Button	3	Button	1	Button	3	Button	1	Button	2	Button	-1	Button	-1	Button	3	Button	4	Button	4	Button	-1	Button	2	Button	2	Button	1	Button	2	Button	-1	Button	3	Button	1	Button	1	Button	1	Button	-1	Button	1	Button	2	Button	-1	Button	2	Button	-1	Button	3
98	5	8x8	8	8	Block	-1	Block	-1	Block	-1	Button	2	Button	1	Button	2	Button	3	Button	-1	Block	-1	Button	1	Button	2	Button	-1	Button	-1	Button	-1	Button	1	Button	2	Button	1	Button	1	Button	-1	Button	2	Button	1	Button	3	Button	2	Button	-1	Button	-1	Button	2	Button	2	Button	1	Button	1	Button	3	Button	3	Button	-1	Button	-1	Button	-1	Button	-1	Button	-1	Button	2	Button	-1	Button	3	Button	2	Button	3	Button	3	Button	1	Button	3	Button	-1	Button	2	Button	-1	Button	-1	Button	3	Button	1	Button	2	Button	2	Button	-1	Button	-1	Button	3	Block	-1	Button	-1	Button	3	Button	-1	Button	3	Button	-1	Block	-1	Block	-1	Block	-1
99	5	8x8	8	8	Button	1	Button	-1	Button	-1	Button	-1	Button	1	Button	1	Button	2	Button	-1	Button	1	Button	3	Button	4	Button	1	Button	-1	Button	1	Button	1	Button	-1	Button	-1	Button	-1	Button	-1	Button	4	Button	1	Button	2	Button	2	Button	-1	Button	3	Button	2	Button	4	Button	3	Button	-1	Button	4	Button	-1	Button	2	Button	3	Button	3	Button	4	Button	3	Button	-1	Button	2	Button	2	Button	3	Button	-1	Button	2	Button	-1	Button	4	Button	3	Button	4	Button	1	Button	1	Button	2	Button	2	Button	4	Button	3	Button	2	Button	-1	Button	4	Button	1	Button	3	Button	-1	Button	2	Button	-1	Button	1	Button	4	Button	3	Button	2
100	5	8x8	8	8	Button	-1	Button	3	Button	1	Button	1	Button	2	Button	-1	Button	2	Button	-1	Button	-1	Button	-1	Button	-1	Button	-1	Button	-1	Button	-1	Button	3	Button	2	Button	1	Button	1	Button	-1	Button	3	Button	2	Button	-1	Button	-1	Button	2	Button	2	Button	-1	Button	2	Button	-1	Button	3	Button	1	Button	-1	Button	1	Button	-1	Button	-1	Button	1	Button	3	Button	-1	Button	2	Button	2	Button	1	Button	-1	Button	3	Button	-1	Button	3	Button	-1	Button	2	Button	2	Button	-1	Button	3	Button	1	Button	-1	Button	2	Button	-1	Button	-1	Button	-1	Button	1	Button	-1	Button	3	Button	2	Button	3	Button	-1	Button	-1	Button	2	Button	1
